{
  "IsEncrypted": false,
  "Values": {
    "AzureWebJobsStorage": "DefaultEndpointsProtocol=https;AccountName=stockagelivre;AccountKey=FZEJ7kIZbuK8Cu9EkPW2B2cdELLaZu6r7QnyMBbleAxbLyADcmuItGE4CeCIKCBuKO+9r9oKuPNe9sHK4tgcqw==;EndpointSuffix=core.windows.net",
    "FUNCTIONS_WORKER_RUNTIME": "python",
    "stockagelivre_STORAGE" : "DefaultEndpointsProtocol=https;AccountName=stockagelivre;AccountKey=FZEJ7kIZbuK8Cu9EkPW2B2cdELLaZu6r7QnyMBbleAxbLyADcmuItGE4CeCIKCBuKO+9r9oKuPNe9sHK4tgcqw==;EndpointSuffix=core.windows.net"
  }
}